ST558-Project 1
…
  multiple_years[[as.character(year)]] <- PUMScust_tibble
  }  
    allyeardata <- bind_rows(multiple_years)
    # we remove the 'head', so that the function returns a complete tibble dataset
  return(allyeardata)
}
# following call works (takes long time)
getPUMSv4.4(c(2021,2022),"GASP","HHL","ST","37",filter_value="24", filter_column = "SCHL" )

# A tibble: 2,752 × 5
    GASP PWGTP HHL   ST    YEAR 
   <dbl> <dbl> <fct> <chr> <chr>
 1     3    34 0     37    2021 
 2     3    73 0     37    2021 
 3     3    79 0     37    2021 
 4     3    48 0     37    2021 
 5    30    83 1     37    2021 
 6    80    71 1     37    2021 
 7    20    89 1     37    2021 
 8    20    79 1     37    2021 
 9    40    54 1     37    2021 
10    70   352 4     37    2021 
# ℹ 2,742 more rows
…
  # to convert the JWDP and JWAP to the minutes since midnight, roughly
  if("JWAP" %in% colnames(allyeardata)){
    allyeardata <- allyeardata %>% mutate(JWAP_since_midnight = ifelse(JWAP != 0, 2+(JWAP-1)*5, 0))
  }
  if("JWDP" %in% colnames(allyeardata)){
    allyeardata <- allyeardata %>% mutate(JWDP_since_midnight = ifelse(JWDP != 0, 15+9*(JWDP-1), 0))
  }
    # we remove the 'head', so that the function returns a complete tibble dataset
  return(allyeardata)
}
# following call works
getPUMSsum(c(2021,2022),"GASP","HHL","ST",filter_value="24", filter_column = "SCHL" )

# A tibble: 1,245 × 5
    GASP PWGTP HHL   ST    YEAR 
   <dbl> <dbl> <fct> <chr> <chr>
 1     3    52 0     09    2021 
 2     3     3 0     09    2021 
 3     3     5 0     09    2021 
 4     3    19 0     09    2021 
 5     3     3 0     09    2021 
 6     3    10 0     09    2021 
 7     3    91 0     09    2021 
 8     3     4 0     09    2021 
 9   180    66 5     09    2021 
10     3   381 1     09    2021 
# ℹ 1,235 more rows

getPUMSsum(c(2021,2022),"JWAP","HHL","ST",filter_value="24", filter_column = "SCHL" )

# A tibble: 1,245 × 6
    JWAP PWGTP HHL   ST    YEAR  JWAP_since_midnight
   <dbl> <dbl> <fct> <chr> <chr>               <dbl>
 1    78   193 2     09    2021                  387
 2     0    51 3     09    2021                    0
 3   112   108 3     09    2021                  557
 4     0    82 3     09    2021                    0
 5   103    54 3     09    2021                  512
 6    76    60 1     09    2021                  377
 7     0    54 1     09    2021                    0
 8   122    52 1     09    2021                  607
 9     0    91 1     09    2021                    0
10     0    58 1     09    2021                    0
# ℹ 1,235 more rows

getPUMSsum(c(2021,2022),"JWDP","HHL","ST",filter_value="24", filter_column = "SCHL" )

# A tibble: 1,245 × 6
    JWDP PWGTP HHL   ST    YEAR  JWDP_since_midnight
   <dbl> <dbl> <fct> <chr> <chr>               <dbl>
 1     0    52 0     09    2021                    0
 2     0     3 0     09    2021                    0
 3     0     5 0     09    2021                    0
 4     0    19 0     09    2021                    0
 5     0     3 0     09    2021                    0
 6     0    10 0     09    2021                    0
 7     0    91 0     09    2021                    0
 8     0     4 0     09    2021                    0
 9    47    66 5     09    2021                  429
10    43   381 1     09    2021                  393
# ℹ 1,235 more rows

getPUMSsum(c(2021,2022),"JWMNP","HHL","ST",filter_value="24", filter_column = "SCHL" )

# A tibble: 1,245 × 5
   JWMNP PWGTP HHL   ST    YEAR 
   <dbl> <dbl> <fct> <chr> <chr>
 1    40   193 2     09    2021 
 2     0    51 3     09    2021 
 3    60   108 3     09    2021 
 4     0    82 3     09    2021 
 5    15    54 3     09    2021 
 6    90    60 1     09    2021 
 7     0    54 1     09    2021 
 8    20    52 1     09    2021 
 9     0    91 1     09    2021 
10     0    58 1     09    2021 
# ℹ 1,235 more rows
…
